[   
  {
    "id":"ReactJS",
    "bgColor":"#3ACBCF",
    "btnColor":"#1D9396",
    "icons": "fab fa-react",
    "framework":"NextJS, GatsbyJS"
  },
  {
    "id":"NodeJS",
    "bgColor":"#18C263",
    "btnColor":"#18C263",
    "icons": "fab fa-node",
    "framework":"ExpressJS, HapiJS"
  },
  {
    "id":"Python",
    "bgColor":"#3ACBCF",
    "btnColor":"#1D9396",
    "icons": "fab fa-python",
    "framework":"Flask, Django"
  }
]